{
   "data": {
      "Aatrox": {
         "id": 266,
         "title": "the Darkin Blade",
         "name": "Aatrox",
         "key": "Aatrox",
         "info": {
            "defense": 4,
            "magic": 3,
            "difficulty": 4,
            "attack": 8
         }
      },
      "Thresh": {
         "id": 412,
         "title": "the Chain Warden",
         "name": "Thresh",
         "key": "Thresh",
         "info": {
            "defense": 6,
            "magic": 6,
            "difficulty": 7,
            "attack": 5
         }
      },
      "Tryndamere": {
         "id": 23,
         "title": "the Barbarian King",
         "name": "Tryndamere",
         "key": "Tryndamere",
         "info": {
            "defense": 5,
            "magic": 2,
            "difficulty": 5,
            "attack": 10
         }
      },
      "Gragas": {
         "id": 79,
         "title": "the Rabble Rouser",
         "name": "Gragas",
         "key": "Gragas",
         "info": {
            "defense": 7,
            "magic": 6,
            "difficulty": 5,
            "attack": 4
         }
      },
      "Cassiopeia": {
         "id": 69,
         "title": "the Serpent's Embrace",
         "name": "Cassiopeia",
         "key": "Cassiopeia",
         "info": {
            "defense": 3,
            "magic": 9,
            "difficulty": 10,
            "attack": 2
         }
      },
      "Ryze": {
         "id": 13,
         "title": "the Rogue Mage",
         "name": "Ryze",
         "key": "Ryze",
         "info": {
            "defense": 2,
            "magic": 10,
            "difficulty": 7,
            "attack": 2
         }
      },
      "Poppy": {
         "id": 78,
         "title": "the Iron Ambassador",
         "name": "Poppy",
         "key": "Poppy",
         "info": {
            "defense": 6,
            "magic": 5,
            "difficulty": 7,
            "attack": 6
         }
      },
      "Sion": {
         "id": 14,
         "title": "The Undead Juggernaut",
         "name": "Sion",
         "key": "Sion",
         "info": {
            "defense": 9,
            "magic": 3,
            "difficulty": 5,
            "attack": 5
         }
      },
      "Annie": {
         "id": 1,
         "title": "the Dark Child",
         "name": "Annie",
         "key": "Annie",
         "info": {
            "defense": 3,
            "magic": 10,
            "difficulty": 6,
            "attack": 2
         }
      },
      "Nautilus": {
         "id": 111,
         "title": "the Titan of the Depths",
         "name": "Nautilus",
         "key": "Nautilus",
         "info": {
            "defense": 6,
            "magic": 6,
            "difficulty": 6,
            "attack": 4
         }
      },
      "Karma": {
         "id": 43,
         "title": "the Enlightened One",
         "name": "Karma",
         "key": "Karma",
         "info": {
            "defense": 7,
            "magic": 8,
            "difficulty": 5,
            "attack": 1
         }
      },
      "Lux": {
         "id": 99,
         "title": "the Lady of Luminosity",
         "name": "Lux",
         "key": "Lux",
         "info": {
            "defense": 4,
            "magic": 9,
            "difficulty": 5,
            "attack": 2
         }
      },
      "Ahri": {
         "id": 103,
         "title": "the Nine-Tailed Fox",
         "name": "Ahri",
         "key": "Ahri",
         "info": {
            "defense": 4,
            "magic": 8,
            "difficulty": 5,
            "attack": 3
         }
      },
      "Olaf": {
         "id": 2,
         "title": "the Berserker",
         "name": "Olaf",
         "key": "Olaf",
         "info": {
            "defense": 5,
            "magic": 3,
            "difficulty": 3,
            "attack": 9
         }
      },
      "Viktor": {
         "id": 112,
         "title": "the Machine Herald",
         "name": "Viktor",
         "key": "Viktor",
         "info": {
            "defense": 4,
            "magic": 10,
            "difficulty": 9,
            "attack": 2
         }
      },
      "Anivia": {
         "id": 34,
         "title": "the Cryophoenix",
         "name": "Anivia",
         "key": "Anivia",
         "info": {
            "defense": 4,
            "magic": 10,
            "difficulty": 10,
            "attack": 1
         }
      },
      "Garen": {
         "id": 86,
         "title": "The Might of Demacia",
         "name": "Garen",
         "key": "Garen",
         "info": {
            "defense": 7,
            "magic": 1,
            "difficulty": 5,
            "attack": 7
         }
      },
      "Singed": {
         "id": 27,
         "title": "the Mad Chemist",
         "name": "Singed",
         "key": "Singed",
         "info": {
            "defense": 8,
            "magic": 7,
            "difficulty": 5,
            "attack": 4
         }
      },
      "Lissandra": {
         "id": 127,
         "title": "the Ice Witch",
         "name": "Lissandra",
         "key": "Lissandra",
         "info": {
            "defense": 5,
            "magic": 8,
            "difficulty": 6,
            "attack": 2
         }
      },
      "Maokai": {
         "id": 57,
         "title": "the Twisted Treant",
         "name": "Maokai",
         "key": "Maokai",
         "info": {
            "defense": 8,
            "magic": 6,
            "difficulty": 3,
            "attack": 3
         }
      },
      "Morgana": {
         "id": 25,
         "title": "Fallen Angel",
         "name": "Morgana",
         "key": "Morgana",
         "info": {
            "defense": 6,
            "magic": 8,
            "difficulty": 1,
            "attack": 1
         }
      },
      "Evelynn": {
         "id": 28,
         "title": "the Widowmaker",
         "name": "Evelynn",
         "key": "Evelynn",
         "info": {
            "defense": 2,
            "magic": 7,
            "difficulty": 10,
            "attack": 4
         }
      },
      "Fizz": {
         "id": 105,
         "title": "the Tidal Trickster",
         "name": "Fizz",
         "key": "Fizz",
         "info": {
            "defense": 4,
            "magic": 7,
            "difficulty": 6,
            "attack": 6
         }
      },
      "Heimerdinger": {
         "id": 74,
         "title": "the Revered Inventor",
         "name": "Heimerdinger",
         "key": "Heimerdinger",
         "info": {
            "defense": 6,
            "magic": 8,
            "difficulty": 8,
            "attack": 2
         }
      },
      "Zed": {
         "id": 238,
         "title": "the Master of Shadows",
         "name": "Zed",
         "key": "Zed",
         "info": {
            "defense": 2,
            "magic": 1,
            "difficulty": 7,
            "attack": 9
         }
      },
      "Rumble": {
         "id": 68,
         "title": "the Mechanized Menace",
         "name": "Rumble",
         "key": "Rumble",
         "info": {
            "defense": 6,
            "magic": 8,
            "difficulty": 10,
            "attack": 3
         }
      },
      "Sona": {
         "id": 37,
         "title": "Maven of the Strings",
         "name": "Sona",
         "key": "Sona",
         "info": {
            "defense": 2,
            "magic": 8,
            "difficulty": 4,
            "attack": 5
         }
      },
      "Mordekaiser": {
         "id": 82,
         "title": "the Master of Metal",
         "name": "Mordekaiser",
         "key": "Mordekaiser",
         "info": {
            "defense": 6,
            "magic": 7,
            "difficulty": 7,
            "attack": 4
         }
      },
      "KogMaw": {
         "id": 96,
         "title": "the Mouth of the Abyss",
         "name": "Kog'Maw",
         "key": "KogMaw",
         "info": {
            "defense": 2,
            "magic": 5,
            "difficulty": 6,
            "attack": 8
         }
      },
      "Katarina": {
         "id": 55,
         "title": "the Sinister Blade",
         "name": "Katarina",
         "key": "Katarina",
         "info": {
            "defense": 3,
            "magic": 9,
            "difficulty": 8,
            "attack": 4
         }
      },
      "Lulu": {
         "id": 117,
         "title": "the Fae Sorceress",
         "name": "Lulu",
         "key": "Lulu",
         "info": {
            "defense": 5,
            "magic": 7,
            "difficulty": 5,
            "attack": 4
         }
      },
      "Ashe": {
         "id": 22,
         "title": "the Frost Archer",
         "name": "Ashe",
         "key": "Ashe",
         "info": {
            "defense": 3,
            "magic": 2,
            "difficulty": 4,
            "attack": 7
         }
      },
      "Karthus": {
         "id": 30,
         "title": "the Deathsinger",
         "name": "Karthus",
         "key": "Karthus",
         "info": {
            "defense": 2,
            "magic": 10,
            "difficulty": 7,
            "attack": 2
         }
      },
      "Alistar": {
         "id": 12,
         "title": "the Minotaur",
         "name": "Alistar",
         "key": "Alistar",
         "info": {
            "defense": 9,
            "magic": 5,
            "difficulty": 7,
            "attack": 6
         }
      },
      "Darius": {
         "id": 122,
         "title": "the Hand of Noxus",
         "name": "Darius",
         "key": "Darius",
         "info": {
            "defense": 5,
            "magic": 1,
            "difficulty": 2,
            "attack": 9
         }
      },
      "Vayne": {
         "id": 67,
         "title": "the Night Hunter",
         "name": "Vayne",
         "key": "Vayne",
         "info": {
            "defense": 1,
            "magic": 1,
            "difficulty": 8,
            "attack": 10
         }
      },
      "Udyr": {
         "id": 77,
         "title": "the Spirit Walker",
         "name": "Udyr",
         "key": "Udyr",
         "info": {
            "defense": 7,
            "magic": 4,
            "difficulty": 7,
            "attack": 8
         }
      },
      "Varus": {
         "id": 110,
         "title": "the Arrow of Retribution",
         "name": "Varus",
         "key": "Varus",
         "info": {
            "defense": 3,
            "magic": 4,
            "difficulty": 2,
            "attack": 7
         }
      },
      "Leona": {
         "id": 89,
         "title": "the Radiant Dawn",
         "name": "Leona",
         "key": "Leona",
         "info": {
            "defense": 8,
            "magic": 3,
            "difficulty": 4,
            "attack": 4
         }
      },
      "Jayce": {
         "id": 126,
         "title": "the Defender of Tomorrow",
         "name": "Jayce",
         "key": "Jayce",
         "info": {
            "defense": 4,
            "magic": 3,
            "difficulty": 7,
            "attack": 8
         }
      },
      "Syndra": {
         "id": 134,
         "title": "the Dark Sovereign",
         "name": "Syndra",
         "key": "Syndra",
         "info": {
            "defense": 3,
            "magic": 9,
            "difficulty": 8,
            "attack": 2
         }
      },
      "Pantheon": {
         "id": 80,
         "title": "the Artisan of War",
         "name": "Pantheon",
         "key": "Pantheon",
         "info": {
            "defense": 4,
            "magic": 3,
            "difficulty": 4,
            "attack": 9
         }
      },
      "Riven": {
         "id": 92,
         "title": "the Exile",
         "name": "Riven",
         "key": "Riven",
         "info": {
            "defense": 5,
            "magic": 1,
            "difficulty": 8,
            "attack": 8
         }
      },
      "Khazix": {
         "id": 121,
         "title": "the Voidreaver",
         "name": "Kha'Zix",
         "key": "Khazix",
         "info": {
            "defense": 4,
            "magic": 3,
            "difficulty": 6,
            "attack": 9
         }
      },
      "Corki": {
         "id": 42,
         "title": "the Daring Bombardier",
         "name": "Corki",
         "key": "Corki",
         "info": {
            "defense": 3,
            "magic": 6,
            "difficulty": 6,
            "attack": 8
         }
      },
      "Caitlyn": {
         "id": 51,
         "title": "the Sheriff of Piltover",
         "name": "Caitlyn",
         "key": "Caitlyn",
         "info": {
            "defense": 2,
            "magic": 2,
            "difficulty": 6,
            "attack": 8
         }
      },
      "Azir": {
         "id": 268,
         "title": "the Emperor of the Sands",
         "name": "Azir",
         "key": "Azir",
         "info": {
            "defense": 3,
            "magic": 8,
            "difficulty": 9,
            "attack": 6
         }
      },
      "Nidalee": {
         "id": 76,
         "title": "the Bestial Huntress",
         "name": "Nidalee",
         "key": "Nidalee",
         "info": {
            "defense": 4,
            "magic": 7,
            "difficulty": 8,
            "attack": 5
         }
      },
      "Galio": {
         "id": 3,
         "title": "the Sentinel's Sorrow",
         "name": "Galio",
         "key": "Galio",
         "info": {
            "defense": 7,
            "magic": 6,
            "difficulty": 3,
            "attack": 3
         }
      },
      "Kennen": {
         "id": 85,
         "title": "the Heart of the Tempest",
         "name": "Kennen",
         "key": "Kennen",
         "info": {
            "defense": 4,
            "magic": 7,
            "difficulty": 4,
            "attack": 6
         }
      },
      "Veigar": {
         "id": 45,
         "title": "the Tiny Master of Evil",
         "name": "Veigar",
         "key": "Veigar",
         "info": {
            "defense": 2,
            "magic": 10,
            "difficulty": 7,
            "attack": 2
         }
      },
      "Bard": {
         "id": 432,
         "title": "the Wandering Caretaker",
         "name": "Bard",
         "key": "Bard",
         "info": {
            "defense": 4,
            "magic": 5,
            "difficulty": 9,
            "attack": 4
         }
      },
      "Gnar": {
         "id": 150,
         "title": "the Missing Link",
         "name": "Gnar",
         "key": "Gnar",
         "info": {
            "defense": 5,
            "magic": 5,
            "difficulty": 8,
            "attack": 6
         }
      },
      "Graves": {
         "id": 104,
         "title": "the Outlaw",
         "name": "Graves",
         "key": "Graves",
         "info": {
            "defense": 5,
            "magic": 3,
            "difficulty": 3,
            "attack": 8
         }
      },
      "Malzahar": {
         "id": 90,
         "title": "the Prophet of the Void",
         "name": "Malzahar",
         "key": "Malzahar",
         "info": {
            "defense": 2,
            "magic": 9,
            "difficulty": 6,
            "attack": 2
         }
      },
      "Vi": {
         "id": 254,
         "title": "the Piltover Enforcer",
         "name": "Vi",
         "key": "Vi",
         "info": {
            "defense": 5,
            "magic": 3,
            "difficulty": 4,
            "attack": 8
         }
      },
      "Kayle": {
         "id": 10,
         "title": "The Judicator",
         "name": "Kayle",
         "key": "Kayle",
         "info": {
            "defense": 6,
            "magic": 7,
            "difficulty": 7,
            "attack": 6
         }
      },
      "Irelia": {
         "id": 39,
         "title": "the Will of the Blades",
         "name": "Irelia",
         "key": "Irelia",
         "info": {
            "defense": 4,
            "magic": 5,
            "difficulty": 5,
            "attack": 7
         }
      },
      "LeeSin": {
         "id": 64,
         "title": "the Blind Monk",
         "name": "Lee Sin",
         "key": "LeeSin",
         "info": {
            "defense": 5,
            "magic": 3,
            "difficulty": 6,
            "attack": 8
         }
      },
      "Elise": {
         "id": 60,
         "title": "The Spider Queen",
         "name": "Elise",
         "key": "Elise",
         "info": {
            "defense": 5,
            "magic": 7,
            "difficulty": 9,
            "attack": 6
         }
      },
      "Volibear": {
         "id": 106,
         "title": "the Thunder's Roar",
         "name": "Volibear",
         "key": "Volibear",
         "info": {
            "defense": 7,
            "magic": 4,
            "difficulty": 3,
            "attack": 7
         }
      },
      "Nunu": {
         "id": 20,
         "title": "the Yeti Rider",
         "name": "Nunu",
         "key": "Nunu",
         "info": {
            "defense": 6,
            "magic": 7,
            "difficulty": 4,
            "attack": 4
         }
      },
      "TwistedFate": {
         "id": 4,
         "title": "the Card Master",
         "name": "Twisted Fate",
         "key": "TwistedFate",
         "info": {
            "defense": 2,
            "magic": 6,
            "difficulty": 9,
            "attack": 6
         }
      },
      "Jax": {
         "id": 24,
         "title": "Grandmaster at Arms",
         "name": "Jax",
         "key": "Jax",
         "info": {
            "defense": 5,
            "magic": 7,
            "difficulty": 5,
            "attack": 7
         }
      },
      "Shyvana": {
         "id": 102,
         "title": "the Half-Dragon",
         "name": "Shyvana",
         "key": "Shyvana",
         "info": {
            "defense": 6,
            "magic": 3,
            "difficulty": 4,
            "attack": 8
         }
      },
      "Kalista": {
         "id": 429,
         "title": "the Spear of Vengeance",
         "name": "Kalista",
         "key": "Kalista",
         "info": {
            "defense": 2,
            "magic": 4,
            "difficulty": 7,
            "attack": 8
         }
      },
      "DrMundo": {
         "id": 36,
         "title": "the Madman of Zaun",
         "name": "Dr. Mundo",
         "key": "DrMundo",
         "info": {
            "defense": 7,
            "magic": 6,
            "difficulty": 5,
            "attack": 5
         }
      },
      "TahmKench": {
         "id": 223,
         "title": "the River King",
         "name": "Tahm Kench",
         "key": "TahmKench",
         "info": {
            "defense": 9,
            "magic": 6,
            "difficulty": 5,
            "attack": 3
         }
      },
      "Brand": {
         "id": 63,
         "title": "the Burning Vengeance",
         "name": "Brand",
         "key": "Brand",
         "info": {
            "defense": 2,
            "magic": 9,
            "difficulty": 4,
            "attack": 2
         }
      },
      "Diana": {
         "id": 131,
         "title": "Scorn of the Moon",
         "name": "Diana",
         "key": "Diana",
         "info": {
            "defense": 6,
            "magic": 8,
            "difficulty": 4,
            "attack": 7
         }
      },
      "Sejuani": {
         "id": 113,
         "title": "the Winter's Wrath",
         "name": "Sejuani",
         "key": "Sejuani",
         "info": {
            "defense": 7,
            "magic": 6,
            "difficulty": 4,
            "attack": 5
         }
      },
      "Vladimir": {
         "id": 8,
         "title": "the Crimson Reaper",
         "name": "Vladimir",
         "key": "Vladimir",
         "info": {
            "defense": 6,
            "magic": 8,
            "difficulty": 7,
            "attack": 2
         }
      },
      "Zac": {
         "id": 154,
         "title": "the Secret Weapon",
         "name": "Zac",
         "key": "Zac",
         "info": {
            "defense": 7,
            "magic": 7,
            "difficulty": 8,
            "attack": 3
         }
      },
      "RekSai": {
         "id": 421,
         "title": "the Void Burrower",
         "name": "Rek'Sai",
         "key": "RekSai",
         "info": {
            "defense": 5,
            "magic": 2,
            "difficulty": 3,
            "attack": 8
         }
      },
      "Quinn": {
         "id": 133,
         "title": "Demacia's Wings",
         "name": "Quinn",
         "key": "Quinn",
         "info": {
            "defense": 4,
            "magic": 2,
            "difficulty": 5,
            "attack": 9
         }
      },
      "Akali": {
         "id": 84,
         "title": "the Fist of Shadow",
         "name": "Akali",
         "key": "Akali",
         "info": {
            "defense": 3,
            "magic": 8,
            "difficulty": 7,
            "attack": 5
         }
      },
      "Tristana": {
         "id": 18,
         "title": "the Yordle Gunner",
         "name": "Tristana",
         "key": "Tristana",
         "info": {
            "defense": 3,
            "magic": 5,
            "difficulty": 4,
            "attack": 9
         }
      },
      "Hecarim": {
         "id": 120,
         "title": "the Shadow of War",
         "name": "Hecarim",
         "key": "Hecarim",
         "info": {
            "defense": 6,
            "magic": 4,
            "difficulty": 6,
            "attack": 8
         }
      },
      "Sivir": {
         "id": 15,
         "title": "the Battle Mistress",
         "name": "Sivir",
         "key": "Sivir",
         "info": {
            "defense": 3,
            "magic": 1,
            "difficulty": 4,
            "attack": 9
         }
      },
      "Lucian": {
         "id": 236,
         "title": "the Purifier",
         "name": "Lucian",
         "key": "Lucian",
         "info": {
            "defense": 5,
            "magic": 3,
            "difficulty": 6,
            "attack": 8
         }
      },
      "Rengar": {
         "id": 107,
         "title": "the Pridestalker",
         "name": "Rengar",
         "key": "Rengar",
         "info": {
            "defense": 4,
            "magic": 2,
            "difficulty": 8,
            "attack": 7
         }
      },
      "Warwick": {
         "id": 19,
         "title": "the Blood Hunter",
         "name": "Warwick",
         "key": "Warwick",
         "info": {
            "defense": 4,
            "magic": 4,
            "difficulty": 3,
            "attack": 7
         }
      },
      "Skarner": {
         "id": 72,
         "title": "the Crystal Vanguard",
         "name": "Skarner",
         "key": "Skarner",
         "info": {
            "defense": 6,
            "magic": 5,
            "difficulty": 5,
            "attack": 7
         }
      },
      "Malphite": {
         "id": 54,
         "title": "Shard of the Monolith",
         "name": "Malphite",
         "key": "Malphite",
         "info": {
            "defense": 9,
            "magic": 7,
            "difficulty": 2,
            "attack": 5
         }
      },
      "Yasuo": {
         "id": 157,
         "title": "the Unforgiven",
         "name": "Yasuo",
         "key": "Yasuo",
         "info": {
            "defense": 4,
            "magic": 4,
            "difficulty": 10,
            "attack": 8
         }
      },
      "Xerath": {
         "id": 101,
         "title": "the Magus Ascendant",
         "name": "Xerath",
         "key": "Xerath",
         "info": {
            "defense": 3,
            "magic": 10,
            "difficulty": 8,
            "attack": 1
         }
      },
      "Teemo": {
         "id": 17,
         "title": "the Swift Scout",
         "name": "Teemo",
         "key": "Teemo",
         "info": {
            "defense": 3,
            "magic": 7,
            "difficulty": 6,
            "attack": 5
         }
      },
      "Nasus": {
         "id": 75,
         "title": "the Curator of the Sands",
         "name": "Nasus",
         "key": "Nasus",
         "info": {
            "defense": 5,
            "magic": 6,
            "difficulty": 6,
            "attack": 7
         }
      },
      "Renekton": {
         "id": 58,
         "title": "the Butcher of the Sands",
         "name": "Renekton",
         "key": "Renekton",
         "info": {
            "defense": 5,
            "magic": 2,
            "difficulty": 3,
            "attack": 8
         }
      },
      "Draven": {
         "id": 119,
         "title": "the Glorious Executioner",
         "name": "Draven",
         "key": "Draven",
         "info": {
            "defense": 3,
            "magic": 1,
            "difficulty": 8,
            "attack": 9
         }
      },
      "Shaco": {
         "id": 35,
         "title": "the Demon Jester",
         "name": "Shaco",
         "key": "Shaco",
         "info": {
            "defense": 4,
            "magic": 6,
            "difficulty": 9,
            "attack": 8
         }
      },
      "Swain": {
         "id": 50,
         "title": "the Master Tactician",
         "name": "Swain",
         "key": "Swain",
         "info": {
            "defense": 6,
            "magic": 9,
            "difficulty": 8,
            "attack": 2
         }
      },
      "Ziggs": {
         "id": 115,
         "title": "the Hexplosives Expert",
         "name": "Ziggs",
         "key": "Ziggs",
         "info": {
            "defense": 4,
            "magic": 9,
            "difficulty": 4,
            "attack": 2
         }
      },
      "Talon": {
         "id": 91,
         "title": "the Blade's Shadow",
         "name": "Talon",
         "key": "Talon",
         "info": {
            "defense": 3,
            "magic": 1,
            "difficulty": 7,
            "attack": 9
         }
      },
      "Janna": {
         "id": 40,
         "title": "the Storm's Fury",
         "name": "Janna",
         "key": "Janna",
         "info": {
            "defense": 5,
            "magic": 7,
            "difficulty": 7,
            "attack": 3
         }
      },
      "Ekko": {
         "id": 245,
         "title": "the Boy Who Shattered Time",
         "name": "Ekko",
         "key": "Ekko",
         "info": {
            "defense": 3,
            "magic": 7,
            "difficulty": 8,
            "attack": 5
         }
      },
      "Orianna": {
         "id": 61,
         "title": "the Lady of Clockwork",
         "name": "Orianna",
         "key": "Orianna",
         "info": {
            "defense": 3,
            "magic": 9,
            "difficulty": 7,
            "attack": 4
         }
      },
      "Fiora": {
         "id": 114,
         "title": "the Grand Duelist",
         "name": "Fiora",
         "key": "Fiora",
         "info": {
            "defense": 4,
            "magic": 2,
            "difficulty": 3,
            "attack": 10
         }
      },
      "FiddleSticks": {
         "id": 9,
         "title": "the Harbinger of Doom",
         "name": "Fiddlesticks",
         "key": "FiddleSticks",
         "info": {
            "defense": 3,
            "magic": 9,
            "difficulty": 9,
            "attack": 2
         }
      },
      "Rammus": {
         "id": 33,
         "title": "the Armordillo",
         "name": "Rammus",
         "key": "Rammus",
         "info": {
            "defense": 10,
            "magic": 5,
            "difficulty": 5,
            "attack": 4
         }
      },
      "Chogath": {
         "id": 31,
         "title": "the Terror of the Void",
         "name": "Cho'Gath",
         "key": "Chogath",
         "info": {
            "defense": 7,
            "magic": 7,
            "difficulty": 5,
            "attack": 3
         }
      },
      "Leblanc": {
         "id": 7,
         "title": "the Deceiver",
         "name": "LeBlanc",
         "key": "Leblanc",
         "info": {
            "defense": 4,
            "magic": 10,
            "difficulty": 9,
            "attack": 1
         }
      },
      "Soraka": {
         "id": 16,
         "title": "the Starchild",
         "name": "Soraka",
         "key": "Soraka",
         "info": {
            "defense": 5,
            "magic": 7,
            "difficulty": 3,
            "attack": 2
         }
      },
      "Zilean": {
         "id": 26,
         "title": "the Chronokeeper",
         "name": "Zilean",
         "key": "Zilean",
         "info": {
            "defense": 5,
            "magic": 8,
            "difficulty": 6,
            "attack": 2
         }
      },
      "Nocturne": {
         "id": 56,
         "title": "the Eternal Nightmare",
         "name": "Nocturne",
         "key": "Nocturne",
         "info": {
            "defense": 5,
            "magic": 2,
            "difficulty": 4,
            "attack": 9
         }
      },
      "Jinx": {
         "id": 222,
         "title": "the Loose Cannon",
         "name": "Jinx",
         "key": "Jinx",
         "info": {
            "defense": 2,
            "magic": 4,
            "difficulty": 6,
            "attack": 9
         }
      },
      "Yorick": {
         "id": 83,
         "title": "the Gravedigger",
         "name": "Yorick",
         "key": "Yorick",
         "info": {
            "defense": 6,
            "magic": 6,
            "difficulty": 4,
            "attack": 6
         }
      },
      "Urgot": {
         "id": 6,
         "title": "the Headsman's Pride",
         "name": "Urgot",
         "key": "Urgot",
         "info": {
            "defense": 5,
            "magic": 3,
            "difficulty": 8,
            "attack": 8
         }
      },
      "MissFortune": {
         "id": 21,
         "title": "the Bounty Hunter",
         "name": "Miss Fortune",
         "key": "MissFortune",
         "info": {
            "defense": 2,
            "magic": 5,
            "difficulty": 1,
            "attack": 8
         }
      },
      "MonkeyKing": {
         "id": 62,
         "title": "the Monkey King",
         "name": "Wukong",
         "key": "MonkeyKing",
         "info": {
            "defense": 5,
            "magic": 2,
            "difficulty": 3,
            "attack": 8
         }
      },
      "Blitzcrank": {
         "id": 53,
         "title": "the Great Steam Golem",
         "name": "Blitzcrank",
         "key": "Blitzcrank",
         "info": {
            "defense": 8,
            "magic": 5,
            "difficulty": 4,
            "attack": 4
         }
      },
      "Shen": {
         "id": 98,
         "title": "Eye of Twilight",
         "name": "Shen",
         "key": "Shen",
         "info": {
            "defense": 9,
            "magic": 3,
            "difficulty": 4,
            "attack": 3
         }
      },
      "Braum": {
         "id": 201,
         "title": "the Heart of the Freljord",
         "name": "Braum",
         "key": "Braum",
         "info": {
            "defense": 9,
            "magic": 4,
            "difficulty": 3,
            "attack": 3
         }
      },
      "XinZhao": {
         "id": 5,
         "title": "the Seneschal of Demacia",
         "name": "Xin Zhao",
         "key": "XinZhao",
         "info": {
            "defense": 6,
            "magic": 3,
            "difficulty": 2,
            "attack": 8
         }
      },
      "Twitch": {
         "id": 29,
         "title": "the Plague Rat",
         "name": "Twitch",
         "key": "Twitch",
         "info": {
            "defense": 2,
            "magic": 3,
            "difficulty": 6,
            "attack": 9
         }
      },
      "MasterYi": {
         "id": 11,
         "title": "the Wuju Bladesman",
         "name": "Master Yi",
         "key": "MasterYi",
         "info": {
            "defense": 4,
            "magic": 2,
            "difficulty": 4,
            "attack": 10
         }
      },
      "Taric": {
         "id": 44,
         "title": "the Gem Knight",
         "name": "Taric",
         "key": "Taric",
         "info": {
            "defense": 8,
            "magic": 5,
            "difficulty": 5,
            "attack": 4
         }
      },
      "Amumu": {
         "id": 32,
         "title": "the Sad Mummy",
         "name": "Amumu",
         "key": "Amumu",
         "info": {
            "defense": 6,
            "magic": 8,
            "difficulty": 3,
            "attack": 2
         }
      },
      "Gangplank": {
         "id": 41,
         "title": "the Saltwater Scourge",
         "name": "Gangplank",
         "key": "Gangplank",
         "info": {
            "defense": 6,
            "magic": 4,
            "difficulty": 9,
            "attack": 7
         }
      },
      "Trundle": {
         "id": 48,
         "title": "the Troll King",
         "name": "Trundle",
         "key": "Trundle",
         "info": {
            "defense": 6,
            "magic": 2,
            "difficulty": 5,
            "attack": 7
         }
      },
      "Kassadin": {
         "id": 38,
         "title": "the Void Walker",
         "name": "Kassadin",
         "key": "Kassadin",
         "info": {
            "defense": 5,
            "magic": 8,
            "difficulty": 8,
            "attack": 3
         }
      },
      "Velkoz": {
         "id": 161,
         "title": "the Eye of the Void",
         "name": "Vel'Koz",
         "key": "Velkoz",
         "info": {
            "defense": 2,
            "magic": 10,
            "difficulty": 8,
            "attack": 2
         }
      },
      "Zyra": {
         "id": 143,
         "title": "Rise of the Thorns",
         "name": "Zyra",
         "key": "Zyra",
         "info": {
            "defense": 3,
            "magic": 8,
            "difficulty": 7,
            "attack": 4
         }
      },
      "Nami": {
         "id": 267,
         "title": "the Tidecaller",
         "name": "Nami",
         "key": "Nami",
         "info": {
            "defense": 3,
            "magic": 7,
            "difficulty": 5,
            "attack": 4
         }
      },
      "JarvanIV": {
         "id": 59,
         "title": "the Exemplar of Demacia",
         "name": "Jarvan IV",
         "key": "JarvanIV",
         "info": {
            "defense": 8,
            "magic": 3,
            "difficulty": 5,
            "attack": 6
         }
      },
      "Ezreal": {
         "id": 81,
         "title": "the Prodigal Explorer",
         "name": "Ezreal",
         "key": "Ezreal",
         "info": {
            "defense": 2,
            "magic": 6,
            "difficulty": 7,
            "attack": 7
         }
      }
   }
}